Individual dietary specialization in a generalist bee varies across populations but has no effect on the richness of associated microbial communities
…
In the file metadata.csv each line represents one individual/nest (inds) from each of the three different populations (pop). The column degree refers to the total number of plant genera present in the nest (richness), weighted.closeness is the closeness centrality, psis is the proportional similarity index. The next six columns are the rarefied richness of bacteria and fungi associated to the pollen, in three different rarefaction depths (see Methods and Online Supplement for details).

## # A tibble: 38 × 11
##    inds  pop   degree weighted.closeness  psis bact.rich bact.rich.2
##    <chr> <chr>  <dbl>              <dbl> <dbl>     <dbl>       <dbl>
##  1 Q116  Q         14             0.0954 0.530      35.0        30.0
##  2 Q119  Q         12             0.113  0.647      NA          NA  
##  3 Q31   Q         13             0.0968 0.577      42.2        34.4
##  4 Q36   Q          8             0.121  0.817      15.8        14.3
##  5 Q55   Q          6             0.136  0.391      21.3        19.4
##  6 Q74   Q          5             0.121  0.640      40.5        33.3
##  7 Q77   Q          9             0.128  0.602      NA          NA  
##  8 Q89   Q          5             0.126  0.369      35.8        31.3
##  9 Q94   Q          7             0.131  0.742      48.5        37.6
## 10 S104  S          7             0.0593 0.493      21.7        19.1
## # … with 28 more rows, and 4 more variables: bact.rich.notrare <dbl>,
## #   fungi.rich <dbl>, fungi.rich.2 <dbl>, fungi.rich.notrare <dbl>
…
